Company Name,Country,Telephone Number,Attending,Tier,Contact 1 Name,Contact 1 Last,Contact 1 Email,Contact 1 Cell,Contact 1 Tel
Company Name,Country,Telephone Number,Attending,Tier,Contact 2 Name,Contact 2 Last,Contact 2 Email,Contact 2 Cell,Contact 2 Tel
Company Name,Country,Telephone Number,Attending,Tier,Contact 3 Name,Contact 3 Last,Contact 3 Email,Contact 3 Cell,Contact 3 Tel
Company Name,Country,Telephone Number,Attending,Tier,Contact 4 Name,Contact 4 Last,Contact 4 Email,Contact 4 Cell,Contact 4 Tel
Meetmax,USA,,Yes,1,Andres,Beltre,andres@twst.com,12,
Meetmax,USA,,Yes,1,Mark,Cross,mark@twst.com,12,21
Meetmax,USA,,Yes,1,Dan,Curtis,dan@twst.com,12,21
Meetmax,USA,,Yes,1,,,,,
Nintendo,Japan,90-123-432-567,No,2,Mario,Mario,mario@twst.com,43,
Nintendo,Japan,90-123-432-567,No,2,Luigi,Mario,mario@twst.com,,54
Nintendo,Japan,90-123-432-567,No,2,Warrio,Mario,warrio@twst.com,43,
Nintendo,Japan,90-123-432-567,No,2,Warrio,Mario,warrio@twst.com,43,54
Corp,,,Yes,2,John,Smith,john@twst.com,65,45
Corp,,,Yes,2,Jenny,Leth,jenny@twst.com,,45
Corp,,,Yes,2,,,,,
Corp,,,Yes,2,,,,,
"New Corp, LLC",Ven,,No,2,,,,,
"New Corp, LLC",Ven,,No,2,,,,,
"New Corp, LLC",Ven,,No,2,,,,,
"New Corp, LLC",Ven,,No,2,,,,,
Bad,DR,555-555-5555,No,2,,,,,
Bad,DR,555-555-5555,No,2,Killa,Scrub,scrub@twst.com,423,4134
Bad,DR,555-555-5555,No,2,Squishy,League,rl@twst.com,423,4134
Bad,DR,555-555-5555,No,2,Don,"King, Kong",jill@twst.com,,4134
Good,,6462682323,Yes,2,Leo,Oli,oli@twst.com,532,466
Good,,6462682323,Yes,2,Katie,Koke,koke@twst.com,532,466
Good,,6462682323,Yes,2,Deanna,Stout,stt@twst.com,532,466
Good,,6462682323,Yes,2,,,,,
